Programming Assignment 4
…
data_tidy <- data |>
  pivot_longer(cols = c(s_cog, sh_cog),
               names_to = "phoneme",
               values_to = "cog")|>
pivot_longer(cols = c(s_skewness, sh_skewness),
             names_to = "phoneme_skewness",
             values_to = "skewness")|>
  select("phoneme", "cog", "skewness")|>
  mutate(phoneme = gsub("_cog", "", phoneme))
         
         print(data_tidy)
```

```
## # A tibble: 200 × 3
##    phoneme   cog skewness
##    <chr>   <dbl>    <dbl>
##  1 s       3285.     2.72
##  2 s       3285.     2.31
##  3 sh      2556.     2.72
##  4 sh      2556.     2.31
##  5 s       3511.     3.09
##  6 s       3511.     2.47
##  7 sh      2781.     3.09
##  8 sh      2781.     2.47
##  9 s       4029.     3.33
## 10 s       4029.     2.48
## # ℹ 190 more rows
```
…
